{
  "page": 1,
  "total_results": 1979,
  "total_pages": 99,
  "results": [
    {
      "popularity": 19.599,
      "id": 6217,
      "video": false,
      "vote_count": 236,
      "vote_average": 5.9,
      "title": "Cat People",
      "release_date": "1982-04-02",
      "original_language": "en",
      "original_title": "Cat People",
      "genre_ids": [
        14,
        27,
        53
      ],
      "backdrop_path": "/zW8L1kjOVGYFjv05zZ9fKl001Uf.jpg",
      "adult": false,
      "overview": "After years of separation, Irina and her minister brother, Paul, reunite in New Orleans in this erotic tale of the supernatural. When zoologists capture a wild panther, Irina is drawn to the cat -- and the zoo curator is drawn to her. Soon, Irina's brother will have to reveal the family secret: that when sexually aroused, they turn into predatory jungle cats.",
      "poster_path": "/nYcQnkbTD4LDmp11HCReQuUoMKD.jpg"
    },
    {
      "popularity": 10.817,
      "vote_count": 120,
      "video": false,
      "poster_path": "/fSebGYTxVrHXE4y3Su5uwJSEtni.jpg",
      "id": 11694,
      "adult": false,
      "backdrop_path": "/cD2GDhwzEOePDzGOqAqxiZZLFeX.jpg",
      "original_language": "en",
      "original_title": "Cat Ballou",
      "genre_ids": [
        35,
        37
      ],
      "title": "Cat Ballou",
      "vote_average": 6.7,
      "overview": "A woman seeking revenge for her murdered father hires a famous gunman, but he's very different from what she expects.",
      "release_date": "1965-06-24"
    },
    {
      "popularity": 19.148,
      "vote_count": 949,
      "video": false,
      "poster_path": "/vyaJdKBxnLXZOmcB3Tqd5FiB9wA.jpg",
      "id": 10588,
      "adult": false,
      "backdrop_path": "/hOsOofYINQxgYk8Y1YX1Gy3xadn.jpg",
      "original_language": "en",
      "original_title": "The Cat in the Hat",
      "genre_ids": [
        14,
        10751
      ],
      "title": "The Cat in the Hat",
      "vote_average": 5.1,
      "overview": "Conrad and Sally Walden are home alone with their pet fish. It is raining outside, and there is nothing to do. Until The Cat in the Hat walks in the front door. He introduces them to their imagination, and at first it's all fun and games, until things get out of hand, and The Cat must go, go, go, before their parents get back.",
      "release_date": "2003-11-21"
    },
    {
      "popularity": 13.306,
      "vote_count": 148,
      "video": false,
      "poster_path": "/mglBAx6ywEZFNPQpoMdXrq1Aajh.jpg",
      "id": 12593,
      "adult": false,
      "backdrop_path": "/995qQxCgitVljB6YbdslvUoBWx7.jpg",
      "original_language": "en",
      "original_title": "Fritz the Cat",
      "genre_ids": [
        16,
        35,
        18
      ],
      "title": "Fritz the Cat",
      "vote_average": 6.1,
      "overview": "A hypocritical swinging college student cat raises hell in a satiric vision of various elements on the 1960's.",
      "release_date": "1972-04-12"
    },
    {
      "popularity": 10.305,
      "vote_count": 71,
      "video": false,
      "poster_path": "/2QnqQn7W2IjVEgK6mmUIkfQWY19.jpg",
      "id": 57353,
      "adult": false,
      "backdrop_path": "/zDtD5gL4JKS6lga9tip7MxpnPIQ.jpg",
      "original_language": "en",
      "original_title": "Cat Run",
      "genre_ids": [
        28,
        35,
        53
      ],
      "title": "Cat Run",
      "vote_average": 5.7,
      "overview": "When a sexy, high-end escort holds the key evidence to a scandalous government cover-up, two bumbling young detectives become her unlikely protectors from a ruthless assassin hired to silence her.",
      "release_date": "2011-04-01"
    },
    {
      "popularity": 9.908,
      "vote_count": 273,
      "video": false,
      "poster_path": "/lwgXL7AVNdKmbp0QVZJFY4a4tIx.jpg",
      "id": 25508,
      "adult": false,
      "backdrop_path": "/cYo21BdRHVpsz2R5Q4Xn0GpfMXb.jpg",
      "original_language": "en",
      "original_title": "Cat People",
      "genre_ids": [
        27,
        53
      ],
      "title": "Cat People",
      "vote_average": 7,
      "overview": "Serbian fashion designer Irena Dubrovna and American marine engineer Oliver Reed meet in Central Park, fall in love and marry after a brief courtship; but Irena won't consummate the union for fear that she will turn into a panther compelled to kill her lover, pursuant to a belief harbored by her home village.",
      "release_date": "1942-12-05"
    },
    {
      "popularity": 9.875,
      "vote_count": 44,
      "video": false,
      "poster_path": "/bH2EWFR9FOKp9fAjNgYf9eanivk.jpg",
      "id": 20735,
      "adult": false,
      "backdrop_path": "/x1e9yaQk2N36zGzZleU3A7q9mNx.jpg",
      "original_language": "en",
      "original_title": "That Darn Cat",
      "genre_ids": [
        35,
        10751
      ],
      "title": "That Darn Cat",
      "vote_average": 4.5,
      "overview": "While making his nightly rounds in the neighborhood, Patti's pet cat D.C. finds himself the carrier of a call for help from a kidnap victim. Patti enlists skeptical law enforcement help to find the victim before it's too late.",
      "release_date": "1997-02-14"
    },
    {
      "popularity": 4.779,
      "id": 39860,
      "video": false,
      "vote_count": 21,
      "vote_average": 6.9,
      "title": "Cat Fishin'",
      "release_date": "1947-02-22",
      "original_language": "en",
      "original_title": "Cat Fishin'",
      "genre_ids": [
        16,
        35
      ],
      "backdrop_path": "/gbsfMYfSIYxpFqfnHcMHnJehbOG.jpg",
      "adult": false,
      "overview": "Spike is guarding a private fishing hole - in his sleep. Tom sneaks in to do some fishing - with Jerry as bait. But one particularly vicious fish turns out to be more than Tom or Jerry bargained for, particularly when he wakes up Spike.",
      "poster_path": "/lLkOG0PdeddTGkrDBWLip8UxalN.jpg"
    },
    {
      "popularity": 8.655,
      "vote_count": 81,
      "video": false,
      "poster_path": "/by92HEWg2d4WrkgbUIPEA0ufsHI.jpg",
      "id": 20723,
      "adult": false,
      "backdrop_path": "/kINVRRAAWa1p1sHkme5GK7ZKNMx.jpg",
      "original_language": "en",
      "original_title": "That Darn Cat!",
      "genre_ids": [
        35,
        80,
        18,
        9648,
        10751
      ],
      "title": "That Darn Cat!",
      "vote_average": 6.6,
      "overview": "A young woman suspects foul play when her cat comes home wearing a wrist watch. Convincing the FBI, though, and catching the bad guys is tougher than she imagined.",
      "release_date": "1965-12-02"
    },
    {
      "popularity": 8.494,
      "id": 24106,
      "video": false,
      "vote_count": 125,
      "vote_average": 6.8,
      "title": "The Black Cat",
      "release_date": "1934-05-07",
      "original_language": "en",
      "original_title": "The Black Cat",
      "genre_ids": [
        27,
        9648
      ],
      "backdrop_path": "/jMasJb7IaCs4G1m5WSHxblKYmR4.jpg",
      "adult": false,
      "overview": "After a road accident in Hungary, the American honeymooners Joan and Peter and the enigmatic Dr. Werdegast find refuge in the house of the famed architect Hjalmar Poelzig, who shares a dark past with the doctor.",
      "poster_path": "/QTH3dkeDGTBRBmsY0A7STpsNN4.jpg"
    },
    {
      "popularity": 3.907,
      "vote_count": 6,
      "video": false,
      "poster_path": "/gPASLcq4jCEHLWnN8fy6E9eulAH.jpg",
      "id": 56031,
      "adult": false,
      "backdrop_path": null,
      "original_language": "zh",
      "original_title": "Cat and Mouse",
      "genre_ids": [
        28,
        35,
        18,
        10749
      ],
      "title": "Cat and Mouse",
      "vote_average": 4.8,
      "overview": "Zhan Zhao (Andy Lau) is a court officer who learns of a plot to assassinate Judge Bao (Anthony Wong). While on holiday he meets a young man named Bai (Cecilia Cheung) who turns out to be a woman. Zhan Zhao tries to recruit Bai to help him stop the assassination of Judge Bao.",
      "release_date": "2003-02-14"
    },
    {
      "popularity": 5.967,
      "vote_count": 16,
      "video": false,
      "poster_path": "/eBj90pocOdfR4IQge0XvaGBPnUF.jpg",
      "id": 40472,
      "adult": false,
      "backdrop_path": "/cJvXsOXiTUHFlbsNiVo8LbfeliR.jpg",
      "original_language": "en",
      "original_title": "Fraidy Cat",
      "genre_ids": [
        16
      ],
      "title": "Fraidy Cat",
      "vote_average": 6.6,
      "overview": "Tom hears a ghost story on the radio and is spooked by it; Jerry notices this and takes advantage of it, using a variety of tricks to scare Tom.",
      "release_date": "1942-01-17"
    },
    {
      "popularity": 7.466,
      "vote_count": 27,
      "video": false,
      "poster_path": "/4GzDcNWovT05iKrSAPNGlRGuoQk.jpg",
      "id": 273621,
      "adult": false,
      "backdrop_path": null,
      "original_language": "en",
      "original_title": "Cat Run 2",
      "genre_ids": [
        28,
        35
      ],
      "title": "Cat Run 2",
      "vote_average": 4.4,
      "overview": "A couple of fumbling best friends run a private detective agency and find themselves solving their next case in New Orleans, becoming embroiled in a web of sexy female spies and government conspiracy in the lively and character-filled backdrops of the Big Easy",
      "release_date": "2014-08-19"
    },
    {
      "popularity": 17.503,
      "vote_count": 307,
      "video": false,
      "poster_path": "/r22wqjtDUu0bCTioWLZIZKG1NkY.jpg",
      "id": 10552,
      "adult": false,
      "backdrop_path": "/hxUM806p8SeOwdsYamUOrTYc07E.jpg",
      "original_language": "en",
      "original_title": "Cat's Eye",
      "genre_ids": [
        27,
        53
      ],
      "title": "Cat's Eye",
      "vote_average": 6.3,
      "overview": "Three short stories by shock-meister Stephen King are linked by a stray cat that roams from one tale to the next in this creepy triptych that begins as Dick (James Woods) tries to quit smoking by any means necessary. Next, we meet Johnny, an adulterous man who's forced by his lover's husband onto a building's hazardous ledge. Finally, Amanda is threatened by an evil gnome who throws suspicion on the family cat.",
      "release_date": "1985-04-12"
    },
    {
      "popularity": 6.368,
      "vote_count": 29,
      "video": false,
      "poster_path": "/aUFyVlaJzEBrRNm98wCtjhjK1cp.jpg",
      "id": 62368,
      "adult": false,
      "backdrop_path": "/6ASbfQvdav5b5Adstif4TwVhiWp.jpg",
      "original_language": "ja",
      "original_title": "Cat Shit One",
      "genre_ids": [
        16,
        10752
      ],
      "title": "Cat Shit One",
      "vote_average": 5.7,
      "overview": "The war against terrorism has gone private. War has always been a profitable business, so having private corporations field their own armies to fight against terrorism is just good business. Who else could protect those innocent bunnies from the religiously fervent turbaned camel fanatics. It falls upon a small cadre of seasoned furry rabbit soldiers to take the battle to the camel's home turf.Derived from a popular Vietnam-conflict based manga series called Apocalypse Meow , this sequel series uses animal characters to tell the story of the war against terrorism fought in distant countries. Non-human cast of characters notwithstanding, this compelling and painstakingly-researched work places an emphasis on factualism in order to accurately portray the weapons and tactics used by soldiers.",
      "release_date": "2010-07-17"
    },
    {
      "popularity": 6.302,
      "vote_count": 62,
      "video": false,
      "poster_path": "/irFQVS0fN47gHNsgQk3z9gtw0Mx.jpg",
      "id": 26503,
      "adult": false,
      "backdrop_path": "/mSdpQhD0AzwKiwGiWhMqn04XbWB.jpg",
      "original_language": "en",
      "original_title": "The Black Cat",
      "genre_ids": [
        27
      ],
      "title": "The Black Cat",
      "vote_average": 5.9,
      "overview": "When a young couple goes missing in a sleepy English village, Scotland Yard Inspector Gorley is brought in to assist on the case.  But what starts off as routine investigation turns into a murder inquiry when the couple are found dead in mysterious circumstances.",
      "release_date": "1981-04-04"
    },
    {
      "popularity": 12.666,
      "vote_count": 806,
      "video": false,
      "poster_path": "/6ltgCFYvw0wL7460ldFMMZv4txj.jpg",
      "id": 404378,
      "adult": false,
      "backdrop_path": "/f6PEWTJt8nBlAzSuXuG6YvFBAQm.jpg",
      "original_language": "en",
      "original_title": "A Street Cat Named Bob",
      "genre_ids": [
        35,
        18
      ],
      "title": "A Street Cat Named Bob",
      "vote_average": 7.8,
      "overview": "Based on the international best selling book. The true feel good story of how James Bowen, a busker and recovering drug addict, had his life transformed when he met a stray ginger cat.",
      "release_date": "2016-11-04"
    },
    {
      "popularity": 14.512,
      "id": 261,
      "video": false,
      "vote_count": 416,
      "vote_average": 7.8,
      "title": "Cat on a Hot Tin Roof",
      "release_date": "1958-09-20",
      "original_language": "en",
      "original_title": "Cat on a Hot Tin Roof",
      "genre_ids": [
        18,
        10749
      ],
      "backdrop_path": "/o53YZOxru84Z9wgZwbwqF25bdOl.jpg",
      "adult": false,
      "overview": "An alcoholic ex-football player drinks his days away, having failed to come to terms with his sexuality and his real feelings for his football buddy who died after an ambiguous accident. His wife is crucified by her desperation to make him desire her: but he resists the affections of his wife. His reunion with his father—who is dying of cancer—jogs a host of memories and revelations for both father and son.",
      "poster_path": "/vWf1AR8rC6WjGKELlmLv2VAUZJB.jpg"
    },
    {
      "popularity": 2.845,
      "id": 219569,
      "video": false,
      "vote_count": 13,
      "vote_average": 6.3,
      "title": "Cat and Dupli-cat",
      "release_date": "1967-01-20",
      "original_language": "en",
      "original_title": "Cat and Dupli-cat",
      "genre_ids": [
        16
      ],
      "backdrop_path": null,
      "adult": false,
      "overview": "Tom is on the canals of Venice, singing opera. He ends up on a cruise ship, where another cat tricks him out of Jerry (who Tom has just caught), then mirrors his every move. Eventually the cats start chasing each other.",
      "poster_path": "/x62vyGNaeLBsC7OoFFmPrHOzQ2v.jpg"
    },
    {
      "popularity": 4.149,
      "vote_count": 10,
      "video": false,
      "poster_path": "/yoO7VoRWVaDD9Vt8OHqthpYDfAr.jpg",
      "id": 35888,
      "adult": false,
      "backdrop_path": "/nX3YQQaqAkWfLqY0mgH6OB88SVE.jpg",
      "original_language": "en",
      "original_title": "Cat Chaser",
      "genre_ids": [
        28,
        53
      ],
      "title": "Cat Chaser",
      "vote_average": 4.4,
      "overview": "A Miami hotel owner finds danger when be becomes romantically involved with the wife of a deposed general from the Dominican Republic where he fought many years back.",
      "release_date": "1989-12-08"
    }
  ]
}