{
  "results": [
    {
      "popularity": 177.524,
      "vote_count": 739,
      "video": false,
      "poster_path": "/kjMbDciooTbJPofVXgAoFjfX8Of.jpg",
      "id": 516486,
      "adult": false,
      "backdrop_path": "/xXBnM6uSTk6qqCf0SRZKXcga9Ba.jpg",
      "original_language": "en",
      "original_title": "Greyhound",
      "genre_ids": [
        28,
        18,
        10752
      ],
      "title": "Greyhound",
      "vote_average": 7.6,
      "overview": "A first-time captain leads a convoy of allied ships carrying thousands of soldiers across the treacherous waters of the “Black Pit” to the front lines of WW2. With no air cover protection for 5 days, the captain and his convoy must battle the surrounding enemy Nazi U-boats in order to give the allies a chance to win the war.",
      "release_date": "2020-06-19"
    },
    {
      "popularity": 113.023,
      "vote_count": 297,
      "video": false,
      "poster_path": "/jHo2M1OiH9Re33jYtUQdfzPeUkx.jpg",
      "id": 385103,
      "adult": false,
      "backdrop_path": "/fKtYXUhX5fxMxzQfyUcQW9Shik6.jpg",
      "original_language": "en",
      "original_title": "Scoob!",
      "genre_ids": [
        12,
        16,
        35,
        9648,
        10751
      ],
      "title": "Scoob!",
      "vote_average": 7.7,
      "overview": "In Scooby-Doo’s greatest adventure yet, see the never-before told story of how lifelong friends Scooby and Shaggy first met and how they joined forces with young detectives Fred, Velma, and Daphne to form the famous Mystery Inc. Now, with hundreds of cases solved, Scooby and the gang face their biggest, toughest mystery ever: an evil plot to unleash the ghost dog Cerberus upon the world. As they race to stop this global “dogpocalypse,” the gang discovers that Scooby has a secret legacy and an epic destiny greater than anyone ever imagined.",
      "release_date": "2020-07-08"
    },
    {
      "popularity": 97.605,
      "vote_count": 26656,
      "video": false,
      "poster_path": "/9gk7adHYeDvHkCSEqAvQNLV5Uge.jpg",
      "id": 27205,
      "adult": false,
      "backdrop_path": "/s3TBrRGB1iav7gFOCNx3H31MoES.jpg",
      "original_language": "en",
      "original_title": "Inception",
      "genre_ids": [
        28,
        12,
        878
      ],
      "title": "Inception",
      "vote_average": 8.3,
      "overview": "Cobb, a skilled thief who commits corporate espionage by infiltrating the subconscious of his targets is offered a chance to regain his old life as payment for a task considered to be impossible: \"inception\", the implantation of another person's idea into a target's subconscious.",
      "release_date": "2010-07-15"
    },
    {
      "popularity": 87.056,
      "vote_count": 63,
      "video": false,
      "poster_path": "/3ynPnBXQVT2Y0s19fDIPlWKUlxH.jpg",
      "id": 587496,
      "adult": false,
      "backdrop_path": "/2gBMBfmQvHeOQQ5PiKiuxVdGs77.jpg",
      "original_language": "en",
      "original_title": "The Rental",
      "genre_ids": [
        18,
        27,
        53
      ],
      "title": "The Rental",
      "vote_average": 5.6,
      "overview": "Two couples on an oceanside getaway grow suspicious that the host of their seemingly perfect rental house may be spying on them. Before long, what should have been a celebratory weekend trip turns into something far more sinister.",
      "release_date": "2020-07-23"
    },
    {
      "popularity": 93.446,
      "vote_count": 8621,
      "video": false,
      "poster_path": "/7IiTTgloJzvGI1TAYymCfbfl3vT.jpg",
      "id": 496243,
      "adult": false,
      "backdrop_path": "/ApiBzeaa95TNYliSbQ8pJv4Fje7.jpg",
      "original_language": "ko",
      "original_title": "기생충",
      "genre_ids": [
        35,
        18,
        53
      ],
      "title": "Parasite",
      "vote_average": 8.5,
      "overview": "All unemployed, Ki-taek's family takes peculiar interest in the wealthy and glamorous Parks for their livelihood until they get entangled in an unexpected incident.",
      "release_date": "2019-05-30"
    },
    {
      "popularity": 82.999,
      "vote_count": 5269,
      "video": false,
      "poster_path": "/aQvJ5WPzZgYVDrxLX4R6cLJCEaQ.jpg",
      "id": 454626,
      "adult": false,
      "backdrop_path": "/stmYfCUGd8Iy6kAMBr6AmWqx8Bq.jpg",
      "original_language": "en",
      "original_title": "Sonic the Hedgehog",
      "genre_ids": [
        28,
        35,
        878,
        10751
      ],
      "title": "Sonic the Hedgehog",
      "vote_average": 7.5,
      "overview": "Based on the global blockbuster videogame franchise from Sega, Sonic the Hedgehog tells the story of the world’s speediest hedgehog as he embraces his new home on Earth. In this live-action adventure comedy, Sonic and his new best friend team up to defend the planet from the evil genius Dr. Robotnik and his plans for world domination.",
      "release_date": "2020-02-12"
    },
    {
      "popularity": 62.632,
      "vote_count": 327,
      "video": false,
      "poster_path": "/MBiKqTsouYqAACLYNDadsjhhC0.jpg",
      "id": 486589,
      "adult": false,
      "backdrop_path": "/bga3i5jcejBekr2FCGJga1fYCh.jpg",
      "original_language": "en",
      "original_title": "Red Shoes and the Seven Dwarfs",
      "genre_ids": [
        16,
        10749,
        10751
      ],
      "title": "Red Shoes and the Seven Dwarfs",
      "vote_average": 7.3,
      "overview": "Princes who have been turned into Dwarfs seek the red shoes of a lady in order to break the spell, although it will not be easy.",
      "release_date": "2019-07-25"
    },
    {
      "popularity": 82.986,
      "vote_count": 229,
      "video": false,
      "poster_path": "/hPkqY2EMqWUnFEoedukilIUieVG.jpg",
      "id": 531876,
      "adult": false,
      "backdrop_path": "/n1RohH2VoK1CdVI2fXvcP19dSlm.jpg",
      "original_language": "en",
      "original_title": "The Outpost",
      "genre_ids": [
        28,
        18,
        36,
        10752
      ],
      "title": "The Outpost",
      "vote_average": 6.6,
      "overview": "A small unit of U.S. soldiers, alone at the remote Combat Outpost Keating, located deep in the valley of three mountains in Afghanistan, battles to defend against an overwhelming force of Taliban fighters in a coordinated attack. The Battle of Kamdesh, as it was known, was the bloodiest American engagement of the Afghan War in 2009 and Bravo Troop 3-61 CAV became one of the most decorated units of the 19-year conflict.",
      "release_date": "2020-06-24"
    },
    {
      "popularity": 52.898,
      "vote_count": 90,
      "video": false,
      "poster_path": "/akHIQu8W3rOgT28r25ggXaKcQIr.jpg",
      "id": 480857,
      "adult": false,
      "backdrop_path": "/e7tjpKP36Xd6BzyTMZo4AUe86VM.jpg",
      "original_language": "en",
      "original_title": "Radioactive",
      "genre_ids": [
        18,
        36,
        10749
      ],
      "title": "Radioactive",
      "vote_average": 5.9,
      "overview": "Tells the story of Nobel Prize winner Marie Curie and her extraordinary scientific discoveries — through the prism of her marriage to husband Pierre — and the seismic and transformative effects their discovery of radium had on the 20th century.",
      "release_date": "2020-03-11"
    },
    {
      "popularity": 54.11,
      "vote_count": 2760,
      "video": false,
      "poster_path": "/f4aul3FyD3jv3v4bul1IrkWZvzq.jpg",
      "id": 508439,
      "adult": false,
      "backdrop_path": "/xFxk4vnirOtUxpOEWgA1MCRfy6J.jpg",
      "original_language": "en",
      "original_title": "Onward",
      "genre_ids": [
        12,
        16,
        35,
        14,
        10751
      ],
      "title": "Onward",
      "vote_average": 7.9,
      "overview": "In a suburban fantasy world, two teenage elf brothers embark on an extraordinary quest to discover if there is still a little magic left out there.",
      "release_date": "2020-02-29"
    },
    {
      "popularity": 49.396,
      "vote_count": 1164,
      "video": false,
      "poster_path": "/wxPhn4ef1EAo5njxwBkAEVrlJJG.jpg",
      "id": 514847,
      "adult": false,
      "backdrop_path": "/naXUDz0VGK7aaPlEpsuYW8kNVsr.jpg",
      "original_language": "en",
      "original_title": "The Hunt",
      "genre_ids": [
        28,
        27,
        53
      ],
      "title": "The Hunt",
      "vote_average": 6.7,
      "overview": "Twelve strangers wake up in a clearing. They don't know where they are—or how they got there. In the shadow of a dark internet conspiracy theory, ruthless elitists gather at a remote location to hunt humans for sport. But their master plan is about to be derailed when one of the hunted turns the tables on her pursuers.",
      "release_date": "2020-03-11"
    },
    {
      "popularity": 58.912,
      "vote_count": 17503,
      "video": false,
      "poster_path": "/f89U3ADr1oiB1s9GkdPOEpXUk5H.jpg",
      "id": 603,
      "adult": false,
      "backdrop_path": "/ByDf0zjLSumz1MP1cDEo2JWVtU.jpg",
      "original_language": "en",
      "original_title": "The Matrix",
      "genre_ids": [
        28,
        878
      ],
      "title": "The Matrix",
      "vote_average": 8.1,
      "overview": "Set in the 22nd century, The Matrix tells the story of a computer hacker who joins a group of underground insurgents fighting the vast and powerful computers who now rule the earth.",
      "release_date": "1999-03-30"
    },
    {
      "popularity": 37.25,
      "vote_count": 2033,
      "video": false,
      "poster_path": "/kTQ3J8oTTKofAVLYnds2cHUz9KO.jpg",
      "id": 522938,
      "adult": false,
      "backdrop_path": "/3IHqwENGxOb36Jgeot4XHs3BTxz.jpg",
      "original_language": "en",
      "original_title": "Rambo: Last Blood",
      "genre_ids": [
        28,
        18,
        53
      ],
      "title": "Rambo: Last Blood",
      "vote_average": 6.3,
      "overview": "After fighting his demons for decades, John Rambo now lives in peace on his family ranch in Arizona, but his rest is interrupted when Gabriela, the granddaughter of his housekeeper María, disappears after crossing the border into Mexico to meet her biological father. Rambo, who has become a true father figure for Gabriela over the years, undertakes a desperate and dangerous journey to find her.",
      "release_date": "2019-09-19"
    },
    {
      "popularity": 44.122,
      "vote_count": 13,
      "video": false,
      "poster_path": "/27eA9xGba61LtKr7gJRnhtDDgEP.jpg",
      "id": 651586,
      "adult": false,
      "backdrop_path": "/1iEDKZHREDetZcOoqioZewcHOw9.jpg",
      "original_language": "es",
      "original_title": "Superagente Makey",
      "genre_ids": [
        28,
        35
      ],
      "title": "Superagente Makey",
      "vote_average": 3.5,
      "overview": "Makey is a humble police officer that, unexpectedly, gets caught in the middle of a dangerous international drug operation in the Costa del Sol, Spain.",
      "release_date": "2020-07-17"
    },
    {
      "popularity": 34.894,
      "vote_count": 21,
      "video": false,
      "poster_path": "/xqbQtMffXwa3oprse4jiHBMBvdW.jpg",
      "id": 601844,
      "adult": false,
      "backdrop_path": "/qTrpw2ZUvN7ywUu1kieEsvNDrgQ.jpg",
      "original_language": "en",
      "original_title": "Becky",
      "genre_ids": [
        28,
        27,
        53
      ],
      "title": "Becky",
      "vote_average": 4,
      "overview": "A teenager's weekend at a lake house with her father takes a turn for the worse when a group of convicts wreaks havoc on their lives.",
      "release_date": "2020-07-23"
    },
    {
      "popularity": 33.833,
      "id": 484641,
      "video": false,
      "vote_count": 1246,
      "vote_average": 6.6,
      "title": "Anna",
      "release_date": "2019-06-19",
      "original_language": "fr",
      "original_title": "Anna",
      "genre_ids": [
        53,
        28
      ],
      "backdrop_path": "/oHDnvxSDOTsaYZSUibJjrEMWMLL.jpg",
      "adult": false,
      "overview": "Beneath Anna Poliatova's striking beauty lies a secret that will unleash her indelible strength and skill to become one of the world's most feared government assassins.",
      "poster_path": "/ybizg6RSYX3yvOQ2iLYucTrHGw2.jpg"
    },
    {
      "popularity": 43.609,
      "vote_count": 45,
      "video": false,
      "poster_path": "/zQFjMmE3K9AX5QrBL1SXIxYQ9jz.jpg",
      "id": 579583,
      "adult": false,
      "backdrop_path": "/5rwcd24GGltKiqdPT4G2dmchLr9.jpg",
      "original_language": "en",
      "original_title": "The King of Staten Island",
      "genre_ids": [
        35,
        18
      ],
      "title": "The King of Staten Island",
      "vote_average": 6.8,
      "overview": "Scott has been a case of arrested development ever since his firefighter father died when he was seven. He’s now reached his mid-20s having achieved little, chasing a dream of becoming a tattoo artist that seems far out of reach. As his ambitious younger sister heads off to college, Scott is still living with his exhausted ER nurse mother and spends his days smoking weed, hanging with the guys — Oscar, Igor and Richie — and secretly hooking up with his childhood friend Kelsey. But when his mother starts dating a loudmouth firefighter named Ray, it sets off a chain of events that will force Scott to grapple with his grief and take his first tentative steps toward moving forward in life.",
      "release_date": "2020-07-22"
    },
    {
      "popularity": 39.758,
      "vote_count": 25,
      "video": false,
      "poster_path": "/7S9RvfMBWSTlUZ4VbxDY7oLeenk.jpg",
      "id": 581392,
      "adult": false,
      "backdrop_path": "/aWsVwgG324dFQS5xHEjB7OCOT9w.jpg",
      "original_language": "ko",
      "original_title": "반도",
      "genre_ids": [
        28,
        27,
        53
      ],
      "title": "Peninsula",
      "vote_average": 6.1,
      "overview": "Peninsula takes place four years after Train to Busan as the characters fight to escape the land that is in ruins due to an unprecedented disaster.",
      "release_date": "2020-07-15"
    },
    {
      "popularity": 35.874,
      "vote_count": 96,
      "video": false,
      "poster_path": "/3wZ0gxLqsPleneFSTZILmM3BE8Q.jpg",
      "id": 539181,
      "adult": false,
      "backdrop_path": "/vpUUznNzW85xo02H16RaSxRNS1.jpg",
      "original_language": "en",
      "original_title": "Relic",
      "genre_ids": [
        18,
        27
      ],
      "title": "Relic",
      "vote_average": 6.3,
      "overview": "When Edna—the elderly and widowed matriarch of the family—goes missing, her daughter and granddaughter travel to their remote family home to find her. Soon after her return, they start to discover a sinister presence haunting the house and taking control of Edna.",
      "release_date": "2020-07-03"
    },
    {
      "popularity": 40.65,
      "vote_count": 15,
      "video": false,
      "poster_path": "/syBQHeRpWabNFXFXWJpgVbBDAbX.jpg",
      "id": 625568,
      "adult": false,
      "backdrop_path": "/4DvZyY0y2TkwxUnSKl9gyM3qAOd.jpg",
      "original_language": "en",
      "original_title": "Unhinged",
      "genre_ids": [
        53
      ],
      "title": "Unhinged",
      "vote_average": 6.9,
      "overview": "A case of road rage turns into full-blown terror when an unstable driver follows a woman and her son.",
      "release_date": "2020-07-02"
    }
  ],
  "page": 1,
  "total_results": 683,
  "dates": {
    "maximum": "2020-08-01",
    "minimum": "2020-06-14"
  },
  "total_pages": 35
}